<svg width="17" height="18" viewBox="0 0 17 18" fill="none" xmlns="http://www.w3.org/2000/svg">
<path fill-rule="evenodd" clip-rule="evenodd" d="M0.759605 9.45245C0.288468 8.94921 0 8.27291 0 7.52921C0 5.97486 1.26004 4.71478 2.81439 4.71478C3.27066 4.71478 3.70147 4.8233 4.08257 5.01601C3.89583 4.63961 3.79085 4.21542 3.79085 3.7668C3.79085 2.21246 5.05096 0.952393 6.60524 0.952393C7.34894 0.952393 8.02524 1.24086 8.52849 1.71195C9.03166 1.24086 9.70796 0.952393 10.4517 0.952393C12.006 0.952393 13.266 2.21246 13.266 3.7668C13.266 4.20106 13.1677 4.61232 12.9921 4.97961C13.3545 4.80966 13.7589 4.71478 14.1856 4.71478C15.74 4.71478 17 5.97486 17 7.52921C17 8.27291 16.7115 8.94921 16.2404 9.45245C16.7115 9.95562 17 10.6319 17 11.3755C17 12.93 15.74 14.19 14.1855 14.19C13.7589 14.19 13.3544 14.095 12.9921 13.9251C13.1677 14.2925 13.266 14.7037 13.266 15.138C13.266 16.6924 12.006 17.9524 10.4517 17.9524C9.70796 17.9524 9.03166 17.6639 8.52849 17.1928C8.02524 17.6639 7.34894 17.9524 6.60524 17.9524C5.05096 17.9524 3.79085 16.6924 3.79085 15.138C3.79085 14.6893 3.89583 14.2652 4.08257 13.8887C3.70147 14.0815 3.27066 14.19 2.81439 14.19C1.26004 14.19 0 12.93 0 11.3755C0 10.6319 0.288468 9.95562 0.759605 9.45245ZM6.60524 6.58131C7.34894 6.58131 8.02524 6.29284 8.52849 5.82178C9.03166 6.29284 9.70796 6.58131 10.4517 6.58131C10.8783 6.58131 11.2828 6.48632 11.6451 6.31645C11.4695 6.68371 11.3711 7.09492 11.3711 7.52921C11.3711 8.27291 11.6596 8.94921 12.1307 9.45245C11.6596 9.95562 11.3711 10.6319 11.3711 11.3755C11.3711 11.8098 11.4695 12.2211 11.6452 12.5884C11.2828 12.4185 10.8783 12.3236 10.4517 12.3236C9.70796 12.3236 9.03166 12.6121 8.52849 13.0831C8.02524 12.6121 7.34894 12.3236 6.60524 12.3236C6.14905 12.3236 5.71816 12.4321 5.33714 12.6248C5.52388 12.2484 5.62886 11.8243 5.62886 11.3755C5.62886 10.6319 5.34039 9.95562 4.86926 9.45245C5.34039 8.94921 5.62886 8.27291 5.62886 7.52921C5.62886 7.08056 5.52388 6.65648 5.33714 6.28012C5.71823 6.47278 6.14905 6.58131 6.60524 6.58131Z" fill="#0150B4"/>
</svg>
