<svg width="325" height="182" viewBox="0 0 325 182" fill="none" xmlns="http://www.w3.org/2000/svg">
<g clip-path="url(#clip0_47_611)">
<path d="M193.765 59.7405H156.723V49.6631C156.723 34.7706 168.796 22.6978 183.688 22.6978H193.765V59.7405Z" fill="#6DD24A"/>
<path d="M156.722 133.825V96.7818V49.6631H119.68V106.859C119.68 121.752 131.753 133.825 146.645 133.825H156.722Z" fill="#6DD24A"/>
<path d="M156.723 96.7818H193.765V133.825H156.723V96.7818Z" fill="#6DD24A"/>
<path fill-rule="evenodd" clip-rule="evenodd" d="M213.589 78.2607C210.51 74.971 208.624 70.5502 208.624 65.6887C208.624 55.5281 216.861 47.2911 227.021 47.2911C230.004 47.2911 232.82 48.0005 235.311 49.2602C234.091 46.7998 233.404 44.0269 233.404 41.0943C233.404 30.9338 241.642 22.6969 251.802 22.6969C256.663 22.6969 261.084 24.5826 264.374 27.662C267.663 24.5826 272.084 22.6969 276.945 22.6969C287.106 22.6969 295.342 30.9338 295.342 41.0943C295.342 43.933 294.7 46.6214 293.552 49.0223C295.92 47.9113 298.564 47.2911 301.354 47.2911C311.514 47.2911 319.751 55.5281 319.751 65.6887C319.751 70.5502 317.865 74.971 314.785 78.2607C317.865 81.5499 319.751 85.9707 319.751 90.8317C319.751 100.993 311.514 109.229 301.353 109.229C298.564 109.229 295.92 108.609 293.552 107.498C294.7 109.899 295.342 112.587 295.342 115.426C295.342 125.587 287.106 133.824 276.945 133.824C272.084 133.824 267.663 131.938 264.374 128.859C261.084 131.938 256.663 133.824 251.802 133.824C241.642 133.824 233.404 125.587 233.404 115.426C233.404 112.494 234.091 109.721 235.311 107.26C232.82 108.52 230.004 109.229 227.021 109.229C216.861 109.229 208.624 100.993 208.624 90.8317C208.624 85.9707 210.51 81.5499 213.589 78.2607ZM251.802 59.4924C256.663 59.4924 261.084 57.6067 264.374 54.5275C267.663 57.6067 272.084 59.4924 276.945 59.4924C279.734 59.4924 282.378 58.8714 284.747 57.761C283.598 60.1618 282.956 62.8498 282.956 65.6887C282.956 70.5502 284.841 74.971 287.921 78.2607C284.841 81.5499 282.956 85.9707 282.956 90.8317C282.956 93.6706 283.598 96.3591 284.747 98.7599C282.378 97.6495 279.734 97.0289 276.945 97.0289C272.084 97.0289 267.663 98.9146 264.374 101.994C261.084 98.9146 256.663 97.0289 251.802 97.0289C248.82 97.0289 246.003 97.738 243.512 98.9978C244.733 96.5376 245.419 93.7649 245.419 90.8317C245.419 85.9707 243.533 81.5499 240.454 78.2607C243.533 74.971 245.419 70.5502 245.419 65.6887C245.419 62.756 244.733 59.9838 243.512 57.5236C246.003 58.7829 248.82 59.4924 251.802 59.4924Z" fill="#6DD24A"/>
<path d="M13.189 48.483C20.3096 48.483 26.0822 42.7111 26.0822 35.5896C26.0822 42.7111 31.8548 48.483 38.9754 48.483H65.3752C65.5396 48.483 65.7031 48.4801 65.8656 48.4743C72.6964 48.7945 78.1372 54.4448 78.1445 61.3534C78.1445 61.3612 78.1445 61.3689 78.1445 61.3766V62.6055H26.0822V61.3776C26.0822 54.2561 20.3096 48.483 13.189 48.483C6.06849 48.483 0.295898 54.2561 0.295898 61.3766V95.1447C0.295898 102.266 6.06849 108.038 13.189 108.038C13.3627 108.038 13.5358 108.034 13.708 108.028C20.5389 108.348 26.0749 114.012 26.0822 120.92V120.93C26.0822 128.051 31.8548 133.824 38.9754 133.824H91.9285C99.049 133.824 104.822 128.051 104.822 120.93C104.822 113.809 99.049 108.037 91.9285 108.037H39.4944H39.2612C39.1446 108.04 39.0929 108.037 38.9754 108.037C31.8577 108.037 26.0875 102.27 26.0822 95.1544V88.3918H91.0376C98.1581 88.3918 103.931 82.6196 103.931 75.4982V61.3776C103.931 54.4622 98.487 48.8187 91.6518 48.4985C91.6518 48.4908 91.6518 48.5063 91.6518 48.4985C91.4796 48.5053 91.2533 48.4985 91.0797 48.4985C84.1652 48.4985 78.5899 43.0235 78.2683 36.1893C78.2683 35.9223 78.2683 35.8179 78.2683 35.5896C78.2683 28.469 72.4957 22.6969 65.3752 22.6969H38.9754C31.8548 22.6969 26.0822 28.469 26.0822 35.5896C26.0822 28.469 20.3096 22.6969 13.189 22.6969C6.06849 22.6969 0.295898 28.469 0.295898 35.5896C0.295898 42.7111 6.06849 48.483 13.189 48.483Z" fill="#6DD24A"/>
<path fill-rule="evenodd" clip-rule="evenodd" d="M142.77 0.342651C145.506 0.342651 147.723 2.56008 147.723 5.29542V30.925C147.723 33.6604 145.506 35.8778 142.77 35.8778C140.035 35.8778 137.817 33.6604 137.817 30.925V5.29542C137.817 2.56008 140.035 0.342651 142.77 0.342651Z" fill="#0150B4"/>
<path fill-rule="evenodd" clip-rule="evenodd" d="M160.538 5.29542C160.538 8.03074 158.321 10.2482 155.585 10.2482H129.956C127.22 10.2482 125.003 8.03074 125.003 5.29542C125.003 2.56008 127.22 0.342651 129.956 0.342651L155.585 0.342653C158.321 0.342653 160.538 2.56008 160.538 5.29542Z" fill="#0150B4"/>
<path fill-rule="evenodd" clip-rule="evenodd" d="M104.322 0.342651C107.057 0.342651 109.275 2.56008 109.275 5.29542V30.925C109.275 33.6604 107.057 35.8778 104.322 35.8778C101.587 35.8778 99.3691 33.6604 99.3691 30.925V5.29542C99.3691 2.56008 101.587 0.342651 104.322 0.342651Z" fill="#0150B4"/>
<path fill-rule="evenodd" clip-rule="evenodd" d="M118.098 5.29542C118.098 8.03074 115.881 10.2482 113.145 10.2482H95.4983C92.7633 10.2482 90.5459 8.03074 90.5459 5.29542C90.5459 2.56008 92.7633 0.342651 95.4983 0.342651L113.145 0.342652C115.881 0.342653 118.098 2.56008 118.098 5.29542Z" fill="#0150B4"/>
<path fill-rule="evenodd" clip-rule="evenodd" d="M118.098 30.925C118.098 33.6604 115.881 35.8778 113.145 35.8778H95.4983C92.7633 35.8778 90.5459 33.6604 90.5459 30.925C90.5459 28.1897 92.7633 25.9722 95.4983 25.9722H113.145C115.881 25.9722 118.098 28.1897 118.098 30.925Z" fill="#0150B4"/>
<path fill-rule="evenodd" clip-rule="evenodd" d="M306.936 145.915C309.672 145.915 311.889 148.133 311.889 150.868V176.498C311.889 179.233 309.672 181.451 306.936 181.451C304.201 181.451 301.983 179.233 301.983 176.498V150.868C301.983 148.133 304.201 145.915 306.936 145.915Z" fill="#0150B4"/>
<path fill-rule="evenodd" clip-rule="evenodd" d="M324.704 150.868C324.704 153.604 322.487 155.821 319.751 155.821H294.122C291.386 155.821 289.169 153.604 289.169 150.868C289.169 148.133 291.386 145.915 294.122 145.915H319.751C322.487 145.915 324.704 148.133 324.704 150.868Z" fill="#0150B4"/>
<path fill-rule="evenodd" clip-rule="evenodd" d="M198.781 145.968C201.516 145.968 203.734 148.185 203.734 150.92V176.55C203.734 179.285 201.516 181.503 198.781 181.503C196.046 181.503 193.828 179.285 193.828 176.55V150.92C193.828 148.185 196.046 145.968 198.781 145.968Z" fill="#0150B4"/>
<path fill-rule="evenodd" clip-rule="evenodd" d="M220.525 150.92C220.525 153.656 218.308 155.873 215.572 155.873H198.781C196.046 155.873 193.828 153.656 193.828 150.92C193.828 148.185 196.046 145.968 198.781 145.968H215.572C218.308 145.968 220.525 148.185 220.525 150.92Z" fill="#0150B4"/>
<path fill-rule="evenodd" clip-rule="evenodd" d="M220.525 163.683C220.525 166.419 218.308 168.636 215.572 168.636H198.782C196.047 168.636 193.829 166.419 193.829 163.683C193.829 160.948 196.047 158.731 198.782 158.731H215.572C218.308 158.731 220.525 160.948 220.525 163.683Z" fill="#0150B4"/>
<path fill-rule="evenodd" clip-rule="evenodd" d="M229.275 145.968C232.01 145.968 234.228 148.185 234.228 150.92V176.55C234.228 179.285 232.01 181.503 229.275 181.503C226.54 181.503 224.322 179.285 224.322 176.55V150.92C224.322 148.185 226.54 145.968 229.275 145.968Z" fill="#0150B4"/>
<path fill-rule="evenodd" clip-rule="evenodd" d="M254.041 150.92C254.041 153.656 251.824 155.873 249.089 155.873H229.274C226.539 155.873 224.321 153.656 224.321 150.92C224.321 148.185 226.539 145.968 229.274 145.968H249.089C251.824 145.968 254.041 148.185 254.041 150.92Z" fill="#0150B4"/>
<path fill-rule="evenodd" clip-rule="evenodd" d="M254.042 176.55C254.042 179.285 251.825 181.503 249.09 181.503H229.552C226.817 181.503 224.6 179.285 224.6 176.55C224.6 173.815 226.817 171.597 229.552 171.597H249.09C251.825 171.597 254.042 173.815 254.042 176.55Z" fill="#0150B4"/>
<path fill-rule="evenodd" clip-rule="evenodd" d="M248.1 163.736C248.1 166.471 245.883 168.689 243.148 168.689H229.275C226.54 168.689 224.322 166.471 224.322 163.736C224.322 161 226.54 158.783 229.275 158.783H243.148C245.883 158.783 248.1 161 248.1 163.736Z" fill="#0150B4"/>
<path fill-rule="evenodd" clip-rule="evenodd" d="M257.304 157.292C257.304 151.009 262.397 145.915 268.681 145.915H278.974C281.709 145.915 283.927 148.133 283.927 150.868C283.927 153.604 281.709 155.821 278.974 155.821H268.681C267.868 155.821 267.209 156.48 267.209 157.292C267.209 158.105 267.868 158.763 268.681 158.763H281.281C287.545 158.763 292.624 163.842 292.624 170.107C292.624 176.372 287.545 181.451 281.281 181.451H262.257C259.521 181.451 257.304 179.233 257.304 176.498C257.304 173.762 259.521 171.545 262.257 171.545H281.281C282.075 171.545 282.719 170.901 282.719 170.107C282.719 169.313 282.075 168.669 281.281 168.669H268.681C262.397 168.669 257.304 163.576 257.304 157.292Z" fill="#0150B4"/>
</g>
<defs>
<clipPath id="clip0_47_611">
<rect width="325" height="181.845" fill="white"/>
</clipPath>
</defs>
</svg>
