<svg width="1172" height="239" viewBox="0 0 1172 239" fill="none" xmlns="http://www.w3.org/2000/svg">
<path d="M7 36.8721C17.2563 48.4104 27.5722 60.1022 38.9146 71.0846C61.5255 92.9776 93.9792 107.224 122.02 120.744C163.577 140.78 204.647 151.218 249.551 160.956C305.215 173.028 362.949 182.484 419.592 188.53C501.803 197.306 596.529 208.656 670.824 163.254C688.055 152.724 700.192 135.16 695.079 113.978C689.279 89.9496 661.398 86.6133 641.207 84.6164C600.666 80.6067 502.31 89.3642 498.868 146.148C494.445 219.137 590.656 228.96 642.995 231.679C760.705 237.794 879.729 204.982 982.183 148.063C1023.84 124.918 1060.62 87.1907 1094.91 54.3613C1116.03 34.1328 1143.51 25.5219 1165.12 7" stroke="#0150B4" stroke-width="13" stroke-linecap="round"/>
</svg>
